.	0	10	
.	0	400	
.	1	10	
.	1	400	
.	2	10	
.	2	400	
.	3	10	
.	3	400	
.	4	10	
.	4	400	
.	5	10	
.	5	400	
.	6	10	
.	6	400	
.	7	10	
.	7	400	
.	8	10	
.	8	400	
.	9	10	
.	9	400	
.	10	10	
.	10	400	
.	11	10	
.	11	400	
.	12	10	
.	12	400	
.	13	10	
.	13	400	
.	14	10	
.	14	400	
.	15	10	
.	15	400	
.	16	10	
.	16	400	
.	17	10	
.	17	400	
.	18	10	
.	18	400	
.	19	10	
.	19	400	
.	20	10	
.	20	400	
.	21	10	
.	21	400	
.	22	10	
.	22	400	
.	23	10	
.	23	400	
.	24	10	
.	24	400	
.	25	10	
.	25	400	
.	26	10	
.	26	400	
.	27	10	
.	27	400	
.	28	10	
.	28	400	
.	29	10	
.	29	400	
.	30	10	
.	30	400	
.	31	10	
.	31	400	
.	32	10	
.	32	400	
.	33	10	
.	33	400	
.	34	10	
.	34	400	
.	35	10	
.	35	400	
.	36	10	
.	36	400	
.	37	10	
.	37	400	
.	38	10	
.	38	400	
.	39	10	
.	39	400	
.	40	10	
.	40	400	
.	41	10	
.	41	400	
.	42	10	
.	42	400	
.	43	10	
.	43	400	
.	44	10	
.	44	400	
.	45	10	
.	45	400	
.	46	10	
.	46	400	
.	47	10	
.	47	400	
.	48	10	
.	48	400	
.	49	10	
.	49	400	
.	50	10	
.	50	400	
.	51	10	
.	51	400	
.	52	10	
.	52	400	
.	53	10	
.	53	400	
.	54	10	
.	54	400	
.	55	10	
.	55	400	
.	56	10	
.	56	400	
.	57	10	
.	57	400	
.	58	10	
.	58	400	
.	59	10	
.	59	400	
.	60	10	
.	60	400	
.	61	10	
.	61	400	
.	62	10	
.	62	400	
.	63	10	
.	63	400	
.	64	10	
.	64	400	
.	65	10	
.	65	400	
.	66	10	
.	66	400	
.	67	10	
.	67	400	
.	68	10	
.	68	400	
.	69	10	
.	69	400	
.	70	10	
.	70	400	
.	71	10	
.	71	400	
.	72	10	
.	72	400	
.	73	10	
.	73	400	
.	74	10	
.	74	400	
.	75	10	
.	75	400	
.	76	10	
.	76	400	
.	77	10	
.	77	400	
.	78	10	
.	78	400	
.	79	10	
.	79	400	
.	80	10	
.	80	400	
.	81	10	
.	81	400	
.	82	10	
.	82	400	
.	83	10	
.	83	400	
.	84	10	
.	84	400	
.	85	10	
.	85	400	
.	86	10	
.	86	400	
.	87	10	
.	87	400	
.	88	10	
.	88	400	
.	89	10	
.	89	400	
.	90	10	
.	90	400	
.	91	10	
.	91	400	
.	92	10	
.	92	400	
.	93	10	
.	93	400	
.	94	10	
.	94	400	
.	95	10	
.	95	400	
.	96	10	
.	96	400	
.	97	10	
.	97	400	
.	98	10	
.	98	400	
.	99	10	
.	99	400	
.	100	10	
.	100	400	
.	101	10	
.	101	400	
.	102	10	
.	102	400	
.	103	10	
.	103	400	
.	104	10	
.	104	400	
.	105	10	
.	105	400	
.	106	10	
.	106	400	
.	107	10	
.	107	400	
.	108	10	
.	108	400	
.	109	10	
.	109	400	
.	110	10	
.	110	400	
.	111	10	
.	111	400	
.	112	10	
.	112	400	
.	113	10	
.	113	400	
.	114	10	
.	114	400	
.	115	10	
.	115	400	
.	116	10	
.	116	400	
.	117	10	
.	117	400	
.	118	10	
.	118	400	
.	119	10	
.	119	400	
.	120	10	
.	120	400	
.	121	10	
.	121	400	
.	122	10	
.	122	400	
.	123	10	
.	123	400	
.	124	10	
.	124	400	
.	125	10	
.	125	400	
.	126	10	
.	126	400	
.	127	10	
.	127	400	
.	128	10	
.	128	400	
.	129	10	
.	129	400	
.	130	10	
.	130	400	
.	131	10	
.	131	400	
.	132	10	
.	132	400	
.	133	10	
.	133	400	
.	134	10	
.	134	400	
.	135	10	
.	135	400	
.	136	10	
.	136	400	
.	137	10	
.	137	400	
.	138	10	
.	138	400	
.	139	10	
.	139	400	
.	140	10	
.	140	400	
.	141	10	
.	141	400	
.	142	10	
.	142	400	
.	143	10	
.	143	400	
.	144	10	
.	144	400	
.	145	10	
.	145	400	
.	146	10	
.	146	400	
.	147	10	
.	147	400	
.	148	10	
.	148	400	
.	149	10	
.	149	400	
.	150	10	
.	150	400	
.	151	10	
.	151	400	
.	152	10	
.	152	400	
.	153	10	
.	153	400	
.	154	10	
.	154	400	
.	155	10	
.	155	400	
.	156	10	
.	156	400	
.	157	10	
.	157	400	
.	158	10	
.	158	400	
.	159	10	
.	159	400	
.	160	10	
.	160	400	
.	161	10	
.	161	400	
.	162	10	
.	162	400	
.	163	10	
.	163	400	
.	164	10	
.	164	400	
.	165	10	
.	165	400	
.	166	10	
.	166	400	
.	167	10	
.	167	400	
.	168	10	
.	168	400	
.	169	10	
.	169	400	
.	170	10	
.	170	400	
.	171	10	
.	171	400	
.	172	10	
.	172	400	
.	173	10	
.	173	400	
.	174	10	
.	174	400	
.	175	10	
.	175	400	
.	176	10	
.	176	400	
.	177	10	
.	177	400	
.	178	10	
.	178	400	
.	179	10	
.	179	400	
.	180	10	
.	180	400	
.	181	10	
.	181	400	
.	182	10	
.	182	400	
.	183	10	
.	183	400	
.	184	10	
.	184	400	
.	185	10	
.	185	400	
.	186	10	
.	186	400	
.	187	10	
.	187	400	
.	188	10	
.	188	400	
.	189	10	
.	189	400	
.	190	10	
.	190	400	
.	191	10	
.	191	400	
.	192	10	
.	192	400	
.	193	10	
.	193	400	
.	194	10	
.	194	400	
.	195	10	
.	195	400	
.	196	10	
.	196	400	
.	197	10	
.	197	400	
.	198	10	
.	198	400	
.	199	10	
.	199	400	
.	200	10	
.	200	400	
.	201	10	
.	201	400	
.	202	10	
.	202	400	
.	203	10	
.	203	400	
.	204	10	
.	204	400	
.	205	10	
.	205	400	
.	206	10	
.	206	400	
.	207	10	
.	207	400	
.	208	10	
.	208	400	
.	209	10	
.	209	400	
.	210	10	
.	210	400	
.	211	10	
.	211	400	
.	212	10	
.	212	400	
.	213	10	
.	213	400	
.	214	10	
.	214	400	
.	215	10	
.	215	400	
.	216	10	
.	216	400	
.	217	10	
.	217	400	
.	218	10	
.	218	400	
.	219	10	
.	219	400	
.	220	10	
.	220	400	
.	221	10	
.	221	400	
.	222	10	
.	222	400	
.	223	10	
.	223	400	
.	224	10	
.	224	400	
.	225	10	
.	225	400	
.	226	10	
.	226	400	
.	227	10	
.	227	400	
.	228	10	
.	228	400	
.	229	10	
.	229	400	
.	230	10	
.	230	400	
.	231	10	
.	231	400	
.	232	10	
.	232	400	
.	233	10	
.	233	400	
.	234	10	
.	234	400	
.	235	10	
.	235	400	
.	236	10	
.	236	400	
.	237	10	
.	237	400	
.	238	10	
.	238	400	
.	239	10	
.	239	400	
.	240	10	
.	240	400	
.	241	10	
.	241	400	
.	242	10	
.	242	400	
.	243	10	
.	243	400	
.	244	10	
.	244	400	
.	245	10	
.	245	400	
.	246	10	
.	246	400	
.	247	10	
.	247	400	
.	248	10	
.	248	400	
.	249	10	
.	249	400	
.	250	10	
.	250	400	
.	251	10	
.	251	400	
.	252	10	
.	252	400	
.	253	10	
.	253	400	
.	254	10	
.	254	400	
.	255	10	
.	255	400	
.	256	10	
.	256	400	
.	257	10	
.	257	400	
.	258	10	
.	258	400	
.	259	10	
.	259	400	
.	260	10	
.	260	400	
.	261	10	
.	261	400	
.	262	10	
.	262	400	
.	263	10	
.	263	400	
.	264	10	
.	264	400	
.	265	10	
.	265	400	
.	266	10	
.	266	400	
.	267	10	
.	267	400	
.	268	10	
.	268	400	
.	269	10	
.	269	400	
.	270	10	
.	270	400	
.	271	10	
.	271	400	
.	272	10	
.	272	400	
.	273	10	
.	273	400	
.	274	10	
.	274	400	
.	275	10	
.	275	400	
.	276	10	
.	276	400	
.	277	10	
.	277	400	
.	278	10	
.	278	400	
.	279	10	
.	279	400	
.	280	10	
.	280	400	
.	281	10	
.	281	400	
.	282	10	
.	282	400	
.	283	10	
.	283	400	
.	284	10	
.	284	400	
.	285	10	
.	285	400	
.	286	10	
.	286	400	
.	287	10	
.	287	400	
.	288	10	
.	288	400	
.	289	10	
.	289	400	
.	290	10	
.	290	400	
.	291	10	
.	291	400	
.	292	10	
.	292	400	
.	293	10	
.	293	400	
.	294	10	
.	294	400	
.	295	10	
.	295	400	
.	296	10	
.	296	400	
.	297	10	
.	297	400	
.	298	10	
.	298	400	
.	299	10	
.	299	400	
.	300	10	
.	300	400	
A	0	10	
A	0	100	
A	1	10	
A	1	100	
A	2	10	
A	2	100	
A	3	10	
A	3	100	
A	4	10	
A	4	100	
A	5	10	
A	5	100	
A	6	10	
A	6	100	
A	7	10	
A	7	100	
A	8	10	
A	8	100	
A	9	10	
A	9	100	
A	10	10	
A	10	100	
A	11	10	
A	11	100	
A	12	10	
A	12	100	
A	13	10	
A	13	100	
A	14	10	
A	14	100	
A	15	10	
A	15	100	
A	16	10	
A	16	100	
A	17	10	
A	17	100	
A	18	10	
A	18	100	
A	19	10	
A	19	100	
A	20	10	
A	20	100	
A	21	10	
A	21	100	
A	22	10	
A	22	100	
A	23	10	
A	23	100	
A	24	10	
A	24	100	
A	25	10	
A	25	100	
A	26	10	
A	26	100	
A	27	10	
A	27	100	
A	28	10	
A	28	100	
A	29	10	
A	29	100	
A	30	10	
A	30	100	
A	31	10	
A	31	100	
A	32	10	
A	32	100	
A	33	10	
A	33	100	
A	34	10	
A	34	100	
A	35	10	
A	35	100	
A	36	10	
A	36	100	
A	37	10	
A	37	100	
A	38	10	
A	38	100	
A	39	10	
A	39	100	
A	40	10	
A	40	100	
A	41	10	
A	41	100	
A	42	10	
A	42	100	
A	43	10	
A	43	100	
A	44	10	
A	44	100	
A	45	10	
A	45	100	
A	46	10	
A	46	100	
A	47	10	
A	47	100	
A	48	10	
A	48	100	
A	49	10	
A	49	100	
A	50	10	
A	50	100	
A	51	10	
A	51	100	
A	52	10	
A	52	100	
A	53	10	
A	53	100	
A	54	10	
A	54	100	
A	55	10	
A	55	100	
A	56	10	
A	56	100	
A	57	10	
A	57	100	
A	58	10	
A	58	100	
A	59	10	
A	59	100	
A	60	10	
A	60	100	
A	61	10	
A	61	100	
A	62	10	
A	62	100	
A	63	10	
A	63	100	
A	64	10	
A	64	100	
A	65	10	
A	65	100	
A	66	10	
A	66	100	
A	67	10	
A	67	100	
A	68	10	
A	68	100	
A	69	10	
A	69	100	
A	70	10	
A	70	100	
A	71	10	
A	71	100	
A	72	10	
A	72	100	
A	73	10	
A	73	100	
A	74	10	
A	74	100	
A	75	10	
A	75	100	
A	76	10	
A	76	100	
A	77	10	
A	77	100	
A	78	10	
A	78	100	
A	79	10	
A	79	100	
A	80	10	
A	80	100	
A	81	10	
A	81	100	
A	82	10	
A	82	100	
A	83	10	
A	83	100	
A	84	10	
A	84	100	
A	85	10	
A	85	100	
A	86	10	
A	86	100	
A	87	10	
A	87	100	
A	88	10	
A	88	100	
A	89	10	
A	89	100	
A	90	10	
A	90	100	
A	91	10	
A	91	100	
A	92	10	
A	92	100	
A	93	10	
A	93	100	
A	94	10	
A	94	100	
A	95	10	
A	95	100	
A	96	10	
A	96	100	
A	97	10	
A	97	100	
A	98	10	
A	98	100	
A	99	10	
A	99	100	
A	100	10	
A	100	100	
A	101	10	
A	101	100	
A	102	10	
A	102	100	
A	103	10	
A	103	100	
A	104	10	
A	104	100	
A	105	10	
A	105	100	
A	106	10	
A	106	100	
A	107	10	
A	107	100	
A	108	10	
A	108	100	
A	109	10	
A	109	100	
A	110	10	
A	110	100	
A	111	10	
A	111	100	
A	112	10	
A	112	100	
A	113	10	
A	113	100	
A	114	10	
A	114	100	
A	115	10	
A	115	100	
A	116	10	
A	116	100	
A	117	10	
A	117	100	
A	118	10	
A	118	100	
A	119	10	
A	119	100	
A	120	10	
A	120	100	
A	121	10	
A	121	100	
A	122	10	
A	122	100	
A	123	10	
A	123	100	
A	124	10	
A	124	100	
A	125	10	
A	125	100	
A	126	10	
A	126	100	
A	127	10	
A	127	100	
A	128	10	
A	128	100	
A	129	10	
A	129	100	
A	130	10	
A	130	100	
A	131	10	
A	131	100	
A	132	10	
A	132	100	
A	133	10	
A	133	100	
A	134	10	
A	134	100	
A	135	10	
A	135	100	
A	136	10	
A	136	100	
A	137	10	
A	137	100	
A	138	10	
A	138	100	
A	139	10	
A	139	100	
A	140	10	
A	140	100	
A	141	10	
A	141	100	
A	142	10	
A	142	100	
A	143	10	
A	143	100	
A	144	10	
A	144	100	
A	145	10	
A	145	100	
A	146	10	
A	146	100	
A	147	10	
A	147	100	
A	148	10	
A	148	100	
A	149	10	
A	149	100	
A	150	10	
A	150	100	
A	151	10	
A	151	100	
A	152	10	
A	152	100	
A	153	10	
A	153	100	
A	154	10	
A	154	100	
A	155	10	
A	155	100	
A	156	10	
A	156	100	
A	157	10	
A	157	100	
A	158	10	
A	158	100	
A	159	10	
A	159	100	
A	160	10	
A	160	100	
A	161	10	
A	161	100	
A	162	10	
A	162	100	
A	163	10	
A	163	100	
A	164	10	
A	164	100	
A	165	10	
A	165	100	
A	166	10	
A	166	100	
A	167	10	
A	167	100	
A	168	10	
A	168	100	
A	169	10	
A	169	100	
A	170	10	
A	170	100	
A	171	10	
A	171	100	
A	172	10	
A	172	100	
A	173	10	
A	173	100	
A	174	10	
A	174	100	
A	175	10	
A	175	100	
A	176	10	
A	176	100	
A	177	10	
A	177	100	
A	178	10	
A	178	100	
A	179	10	
A	179	100	
A	180	10	
A	180	100	
A	181	10	
A	181	100	
A	182	10	
A	182	100	
A	183	10	
A	183	100	
A	184	10	
A	184	100	
A	185	10	
A	185	100	
A	186	10	
A	186	100	
A	187	10	
A	187	100	
A	188	10	
A	188	100	
A	189	10	
A	189	100	
A	190	10	
A	190	100	
A	191	10	
A	191	100	
A	192	10	
A	192	100	
A	193	10	
A	193	100	
A	194	10	
A	194	100	
A	195	10	
A	195	100	
A	196	10	
A	196	100	
A	197	10	
A	197	100	
A	198	10	
A	198	100	
A	199	10	
A	199	100	
A	200	10	
A	200	100	
A	201	10	
A	201	100	
A	202	10	
A	202	100	
A	203	10	
A	203	100	
A	204	10	
A	204	100	
A	205	10	
A	205	100	
A	206	10	
A	206	100	
A	207	10	
A	207	100	
A	208	10	
A	208	100	
A	209	10	
A	209	100	
A	210	10	
A	210	100	
A	211	10	
A	211	100	
A	212	10	
A	212	100	
A	213	10	
A	213	100	
A	214	10	
A	214	100	
A	215	10	
A	215	100	
A	216	10	
A	216	100	
A	217	10	
A	217	100	
A	218	10	
A	218	100	
A	219	10	
A	219	100	
A	220	10	
A	220	100	
A	221	10	
A	221	100	
A	222	10	
A	222	100	
A	223	10	
A	223	100	
A	224	10	
A	224	100	
A	225	10	
A	225	100	
A	226	10	
A	226	100	
A	227	10	
A	227	100	
A	228	10	
A	228	100	
A	229	10	
A	229	100	
A	230	10	
A	230	100	
A	231	10	
A	231	100	
A	232	10	
A	232	100	
A	233	10	
A	233	100	
A	234	10	
A	234	100	
A	235	10	
A	235	100	
A	236	10	
A	236	100	
A	237	10	
A	237	100	
A	238	10	
A	238	100	
A	239	10	
A	239	100	
A	240	10	
A	240	100	
A	241	10	
A	241	100	
A	242	10	
A	242	100	
A	243	10	
A	243	100	
A	244	10	
A	244	100	
A	245	10	
A	245	100	
A	246	10	
A	246	100	
A	247	10	
A	247	100	
A	248	10	
A	248	100	
A	249	10	
A	249	100	
A	250	10	
A	250	100	
A	251	10	
A	251	100	
A	252	10	
A	252	100	
A	253	10	
A	253	100	
A	254	10	
A	254	100	
A	255	10	
A	255	100	
A	256	10	
A	256	100	
A	257	10	
A	257	100	
A	258	10	
A	258	100	
A	259	10	
A	259	100	
A	260	10	
A	260	100	
A	261	10	
A	261	100	
A	262	10	
A	262	100	
A	263	10	
A	263	100	
A	264	10	
A	264	100	
A	265	10	
A	265	100	
A	266	10	
A	266	100	
A	267	10	
A	267	100	
A	268	10	
A	268	100	
A	269	10	
A	269	100	
A	270	10	
A	270	100	
A	271	10	
A	271	100	
A	272	10	
A	272	100	
A	273	10	
A	273	100	
A	274	10	
A	274	100	
A	275	10	
A	275	100	
A	276	10	
A	276	100	
A	277	10	
A	277	100	
A	278	10	
A	278	100	
A	279	10	
A	279	100	
A	280	10	
A	280	100	
A	281	10	
A	281	100	
A	282	10	
A	282	100	
A	283	10	
A	283	100	
A	284	10	
A	284	100	
A	285	10	
A	285	100	
A	286	10	
A	286	100	
A	287	10	
A	287	100	
A	288	10	
A	288	100	
A	289	10	
A	289	100	
A	290	10	
A	290	100	
A	291	10	
A	291	100	
A	292	10	
A	292	100	
A	293	10	
A	293	100	
A	294	10	
A	294	100	
A	295	10	
A	295	100	
A	296	10	
A	296	100	
A	297	10	
A	297	100	
A	298	10	
A	298	100	
A	299	10	
A	299	100	
A	300	10	
A	300	100	
T	0	10	
T	0	100	
T	1	10	
T	1	100	
T	2	10	
T	2	100	
T	3	10	
T	3	100	
T	4	10	
T	4	100	
T	5	10	
T	5	100	
T	6	10	
T	6	100	
T	7	10	
T	7	100	
T	8	10	
T	8	100	
T	9	10	
T	9	100	
T	10	10	
T	10	100	
T	11	10	
T	11	100	
T	12	10	
T	12	100	
T	13	10	
T	13	100	
T	14	10	
T	14	100	
T	15	10	
T	15	100	
T	16	10	
T	16	100	
T	17	10	
T	17	100	
T	18	10	
T	18	100	
T	19	10	
T	19	100	
T	20	10	
T	20	100	
T	21	10	
T	21	100	
T	22	10	
T	22	100	
T	23	10	
T	23	100	
T	24	10	
T	24	100	
T	25	10	
T	25	100	
T	26	10	
T	26	100	
T	27	10	
T	27	100	
T	28	10	
T	28	100	
T	29	10	
T	29	100	
T	30	10	
T	30	100	
T	31	10	
T	31	100	
T	32	10	
T	32	100	
T	33	10	
T	33	100	
T	34	10	
T	34	100	
T	35	10	
T	35	100	
T	36	10	
T	36	100	
T	37	10	
T	37	100	
T	38	10	
T	38	100	
T	39	10	
T	39	100	
T	40	10	
T	40	100	
T	41	10	
T	41	100	
T	42	10	
T	42	100	
T	43	10	
T	43	100	
T	44	10	
T	44	100	
T	45	10	
T	45	100	
T	46	10	
T	46	100	
T	47	10	
T	47	100	
T	48	10	
T	48	100	
T	49	10	
T	49	100	
T	50	10	
T	50	100	
T	51	10	
T	51	100	
T	52	10	
T	52	100	
T	53	10	
T	53	100	
T	54	10	
T	54	100	
T	55	10	
T	55	100	
T	56	10	
T	56	100	
T	57	10	
T	57	100	
T	58	10	
T	58	100	
T	59	10	
T	59	100	
T	60	10	
T	60	100	
T	61	10	
T	61	100	
T	62	10	
T	62	100	
T	63	10	
T	63	100	
T	64	10	
T	64	100	
T	65	10	
T	65	100	
T	66	10	
T	66	100	
T	67	10	
T	67	100	
T	68	10	
T	68	100	
T	69	10	
T	69	100	
T	70	10	
T	70	100	
T	71	10	
T	71	100	
T	72	10	
T	72	100	
T	73	10	
T	73	100	
T	74	10	
T	74	100	
T	75	10	
T	75	100	
T	76	10	
T	76	100	
T	77	10	
T	77	100	
T	78	10	
T	78	100	
T	79	10	
T	79	100	
T	80	10	
T	80	100	
T	81	10	
T	81	100	
T	82	10	
T	82	100	
T	83	10	
T	83	100	
T	84	10	
T	84	100	
T	85	10	
T	85	100	
T	86	10	
T	86	100	
T	87	10	
T	87	100	
T	88	10	
T	88	100	
T	89	10	
T	89	100	
T	90	10	
T	90	100	
T	91	10	
T	91	100	
T	92	10	
T	92	100	
T	93	10	
T	93	100	
T	94	10	
T	94	100	
T	95	10	
T	95	100	
T	96	10	
T	96	100	
T	97	10	
T	97	100	
T	98	10	
T	98	100	
T	99	10	
T	99	100	
T	100	10	
T	100	100	
T	101	10	
T	101	100	
T	102	10	
T	102	100	
T	103	10	
T	103	100	
T	104	10	
T	104	100	
T	105	10	
T	105	100	
T	106	10	
T	106	100	
T	107	10	
T	107	100	
T	108	10	
T	108	100	
T	109	10	
T	109	100	
T	110	10	
T	110	100	
T	111	10	
T	111	100	
T	112	10	
T	112	100	
T	113	10	
T	113	100	
T	114	10	
T	114	100	
T	115	10	
T	115	100	
T	116	10	
T	116	100	
T	117	10	
T	117	100	
T	118	10	
T	118	100	
T	119	10	
T	119	100	
T	120	10	
T	120	100	
T	121	10	
T	121	100	
T	122	10	
T	122	100	
T	123	10	
T	123	100	
T	124	10	
T	124	100	
T	125	10	
T	125	100	
T	126	10	
T	126	100	
T	127	10	
T	127	100	
T	128	10	
T	128	100	
T	129	10	
T	129	100	
T	130	10	
T	130	100	
T	131	10	
T	131	100	
T	132	10	
T	132	100	
T	133	10	
T	133	100	
T	134	10	
T	134	100	
T	135	10	
T	135	100	
T	136	10	
T	136	100	
T	137	10	
T	137	100	
T	138	10	
T	138	100	
T	139	10	
T	139	100	
T	140	10	
T	140	100	
T	141	10	
T	141	100	
T	142	10	
T	142	100	
T	143	10	
T	143	100	
T	144	10	
T	144	100	
T	145	10	
T	145	100	
T	146	10	
T	146	100	
T	147	10	
T	147	100	
T	148	10	
T	148	100	
T	149	10	
T	149	100	
T	150	10	
T	150	100	
T	151	10	
T	151	100	
T	152	10	
T	152	100	
T	153	10	
T	153	100	
T	154	10	
T	154	100	
T	155	10	
T	155	100	
T	156	10	
T	156	100	
T	157	10	
T	157	100	
T	158	10	
T	158	100	
T	159	10	
T	159	100	
T	160	10	
T	160	100	
T	161	10	
T	161	100	
T	162	10	
T	162	100	
T	163	10	
T	163	100	
T	164	10	
T	164	100	
T	165	10	
T	165	100	
T	166	10	
T	166	100	
T	167	10	
T	167	100	
T	168	10	
T	168	100	
T	169	10	
T	169	100	
T	170	10	
T	170	100	
T	171	10	
T	171	100	
T	172	10	
T	172	100	
T	173	10	
T	173	100	
T	174	10	
T	174	100	
T	175	10	
T	175	100	
T	176	10	
T	176	100	
T	177	10	
T	177	100	
T	178	10	
T	178	100	
T	179	10	
T	179	100	
T	180	10	
T	180	100	
T	181	10	
T	181	100	
T	182	10	
T	182	100	
T	183	10	
T	183	100	
T	184	10	
T	184	100	
T	185	10	
T	185	100	
T	186	10	
T	186	100	
T	187	10	
T	187	100	
T	188	10	
T	188	100	
T	189	10	
T	189	100	
T	190	10	
T	190	100	
T	191	10	
T	191	100	
T	192	10	
T	192	100	
T	193	10	
T	193	100	
T	194	10	
T	194	100	
T	195	10	
T	195	100	
T	196	10	
T	196	100	
T	197	10	
T	197	100	
T	198	10	
T	198	100	
T	199	10	
T	199	100	
T	200	10	
T	200	100	
T	201	10	
T	201	100	
T	202	10	
T	202	100	
T	203	10	
T	203	100	
T	204	10	
T	204	100	
T	205	10	
T	205	100	
T	206	10	
T	206	100	
T	207	10	
T	207	100	
T	208	10	
T	208	100	
T	209	10	
T	209	100	
T	210	10	
T	210	100	
T	211	10	
T	211	100	
T	212	10	
T	212	100	
T	213	10	
T	213	100	
T	214	10	
T	214	100	
T	215	10	
T	215	100	
T	216	10	
T	216	100	
T	217	10	
T	217	100	
T	218	10	
T	218	100	
T	219	10	
T	219	100	
T	220	10	
T	220	100	
T	221	10	
T	221	100	
T	222	10	
T	222	100	
T	223	10	
T	223	100	
T	224	10	
T	224	100	
T	225	10	
T	225	100	
T	226	10	
T	226	100	
T	227	10	
T	227	100	
T	228	10	
T	228	100	
T	229	10	
T	229	100	
T	230	10	
T	230	100	
T	231	10	
T	231	100	
T	232	10	
T	232	100	
T	233	10	
T	233	100	
T	234	10	
T	234	100	
T	235	10	
T	235	100	
T	236	10	
T	236	100	
T	237	10	
T	237	100	
T	238	10	
T	238	100	
T	239	10	
T	239	100	
T	240	10	
T	240	100	
T	241	10	
T	241	100	
T	242	10	
T	242	100	
T	243	10	
T	243	100	
T	244	10	
T	244	100	
T	245	10	
T	245	100	
T	246	10	
T	246	100	
T	247	10	
T	247	100	
T	248	10	
T	248	100	
T	249	10	
T	249	100	
T	250	10	
T	250	100	
T	251	10	
T	251	100	
T	252	10	
T	252	100	
T	253	10	
T	253	100	
T	254	10	
T	254	100	
T	255	10	
T	255	100	
T	256	10	
T	256	100	
T	257	10	
T	257	100	
T	258	10	
T	258	100	
T	259	10	
T	259	100	
T	260	10	
T	260	100	
T	261	10	
T	261	100	
T	262	10	
T	262	100	
T	263	10	
T	263	100	
T	264	10	
T	264	100	
T	265	10	
T	265	100	
T	266	10	
T	266	100	
T	267	10	
T	267	100	
T	268	10	
T	268	100	
T	269	10	
T	269	100	
T	270	10	
T	270	100	
T	271	10	
T	271	100	
T	272	10	
T	272	100	
T	273	10	
T	273	100	
T	274	10	
T	274	100	
T	275	10	
T	275	100	
T	276	10	
T	276	100	
T	277	10	
T	277	100	
T	278	10	
T	278	100	
T	279	10	
T	279	100	
T	280	10	
T	280	100	
T	281	10	
T	281	100	
T	282	10	
T	282	100	
T	283	10	
T	283	100	
T	284	10	
T	284	100	
T	285	10	
T	285	100	
T	286	10	
T	286	100	
T	287	10	
T	287	100	
T	288	10	
T	288	100	
T	289	10	
T	289	100	
T	290	10	
T	290	100	
T	291	10	
T	291	100	
T	292	10	
T	292	100	
T	293	10	
T	293	100	
T	294	10	
T	294	100	
T	295	10	
T	295	100	
T	296	10	
T	296	100	
T	297	10	
T	297	100	
T	298	10	
T	298	100	
T	299	10	
T	299	100	
T	300	10	
T	300	100	
G	0	10	
G	0	100	
G	1	10	
G	1	100	
G	2	10	
G	2	100	
G	3	10	
G	3	100	
G	4	10	
G	4	100	
G	5	10	
G	5	100	
G	6	10	
G	6	100	
G	7	10	
G	7	100	
G	8	10	
G	8	100	
G	9	10	
G	9	100	
G	10	10	
G	10	100	
G	11	10	
G	11	100	
G	12	10	
G	12	100	
G	13	10	
G	13	100	
G	14	10	
G	14	100	
G	15	10	
G	15	100	
G	16	10	
G	16	100	
G	17	10	
G	17	100	
G	18	10	
G	18	100	
G	19	10	
G	19	100	
G	20	10	
G	20	100	
G	21	10	
G	21	100	
G	22	10	
G	22	100	
G	23	10	
G	23	100	
G	24	10	
G	24	100	
G	25	10	
G	25	100	
G	26	10	
G	26	100	
G	27	10	
G	27	100	
G	28	10	
G	28	100	
G	29	10	
G	29	100	
G	30	10	
G	30	100	
G	31	10	
G	31	100	
G	32	10	
G	32	100	
G	33	10	
G	33	100	
G	34	10	
G	34	100	
G	35	10	
G	35	100	
G	36	10	
G	36	100	
G	37	10	
G	37	100	
G	38	10	
G	38	100	
G	39	10	
G	39	100	
G	40	10	
G	40	100	
G	41	10	
G	41	100	
G	42	10	
G	42	100	
G	43	10	
G	43	100	
G	44	10	
G	44	100	
G	45	10	
G	45	100	
G	46	10	
G	46	100	
G	47	10	
G	47	100	
G	48	10	
G	48	100	
G	49	10	
G	49	100	
G	50	10	
G	50	100	
G	51	10	
G	51	100	
G	52	10	
G	52	100	
G	53	10	
G	53	100	
G	54	10	
G	54	100	
G	55	10	
G	55	100	
G	56	10	
G	56	100	
G	57	10	
G	57	100	
G	58	10	
G	58	100	
G	59	10	
G	59	100	
G	60	10	
G	60	100	
G	61	10	
G	61	100	
G	62	10	
G	62	100	
G	63	10	
G	63	100	
G	64	10	
G	64	100	
G	65	10	
G	65	100	
G	66	10	
G	66	100	
G	67	10	
G	67	100	
G	68	10	
G	68	100	
G	69	10	
G	69	100	
G	70	10	
G	70	100	
G	71	10	
G	71	100	
G	72	10	
G	72	100	
G	73	10	
G	73	100	
G	74	10	
G	74	100	
G	75	10	
G	75	100	
G	76	10	
G	76	100	
G	77	10	
G	77	100	
G	78	10	
G	78	100	
G	79	10	
G	79	100	
G	80	10	
G	80	100	
G	81	10	
G	81	100	
G	82	10	
G	82	100	
G	83	10	
G	83	100	
G	84	10	
G	84	100	
G	85	10	
G	85	100	
G	86	10	
G	86	100	
G	87	10	
G	87	100	
G	88	10	
G	88	100	
G	89	10	
G	89	100	
G	90	10	
G	90	100	
G	91	10	
G	91	100	
G	92	10	
G	92	100	
G	93	10	
G	93	100	
G	94	10	
G	94	100	
G	95	10	
G	95	100	
G	96	10	
G	96	100	
G	97	10	
G	97	100	
G	98	10	
G	98	100	
G	99	10	
G	99	100	
G	100	10	
G	100	100	
G	101	10	
G	101	100	
G	102	10	
G	102	100	
G	103	10	
G	103	100	
G	104	10	
G	104	100	
G	105	10	
G	105	100	
G	106	10	
G	106	100	
G	107	10	
G	107	100	
G	108	10	
G	108	100	
G	109	10	
G	109	100	
G	110	10	
G	110	100	
G	111	10	
G	111	100	
G	112	10	
G	112	100	
G	113	10	
G	113	100	
G	114	10	
G	114	100	
G	115	10	
G	115	100	
G	116	10	
G	116	100	
G	117	10	
G	117	100	
G	118	10	
G	118	100	
G	119	10	
G	119	100	
G	120	10	
G	120	100	
G	121	10	
G	121	100	
G	122	10	
G	122	100	
G	123	10	
G	123	100	
G	124	10	
G	124	100	
G	125	10	
G	125	100	
G	126	10	
G	126	100	
G	127	10	
G	127	100	
G	128	10	
G	128	100	
G	129	10	
G	129	100	
G	130	10	
G	130	100	
G	131	10	
G	131	100	
G	132	10	
G	132	100	
G	133	10	
G	133	100	
G	134	10	
G	134	100	
G	135	10	
G	135	100	
G	136	10	
G	136	100	
G	137	10	
G	137	100	
G	138	10	
G	138	100	
G	139	10	
G	139	100	
G	140	10	
G	140	100	
G	141	10	
G	141	100	
G	142	10	
G	142	100	
G	143	10	
G	143	100	
G	144	10	
G	144	100	
G	145	10	
G	145	100	
G	146	10	
G	146	100	
G	147	10	
G	147	100	
G	148	10	
G	148	100	
G	149	10	
G	149	100	
G	150	10	
G	150	100	
G	151	10	
G	151	100	
G	152	10	
G	152	100	
G	153	10	
G	153	100	
G	154	10	
G	154	100	
G	155	10	
G	155	100	
G	156	10	
G	156	100	
G	157	10	
G	157	100	
G	158	10	
G	158	100	
G	159	10	
G	159	100	
G	160	10	
G	160	100	
G	161	10	
G	161	100	
G	162	10	
G	162	100	
G	163	10	
G	163	100	
G	164	10	
G	164	100	
G	165	10	
G	165	100	
G	166	10	
G	166	100	
G	167	10	
G	167	100	
G	168	10	
G	168	100	
G	169	10	
G	169	100	
G	170	10	
G	170	100	
G	171	10	
G	171	100	
G	172	10	
G	172	100	
G	173	10	
G	173	100	
G	174	10	
G	174	100	
G	175	10	
G	175	100	
G	176	10	
G	176	100	
G	177	10	
G	177	100	
G	178	10	
G	178	100	
G	179	10	
G	179	100	
G	180	10	
G	180	100	
G	181	10	
G	181	100	
G	182	10	
G	182	100	
G	183	10	
G	183	100	
G	184	10	
G	184	100	
G	185	10	
G	185	100	
G	186	10	
G	186	100	
G	187	10	
G	187	100	
G	188	10	
G	188	100	
G	189	10	
G	189	100	
G	190	10	
G	190	100	
G	191	10	
G	191	100	
G	192	10	
G	192	100	
G	193	10	
G	193	100	
G	194	10	
G	194	100	
G	195	10	
G	195	100	
G	196	10	
G	196	100	
G	197	10	
G	197	100	
G	198	10	
G	198	100	
G	199	10	
G	199	100	
G	200	10	
G	200	100	
G	201	10	
G	201	100	
G	202	10	
G	202	100	
G	203	10	
G	203	100	
G	204	10	
G	204	100	
G	205	10	
G	205	100	
G	206	10	
G	206	100	
G	207	10	
G	207	100	
G	208	10	
G	208	100	
G	209	10	
G	209	100	
G	210	10	
G	210	100	
G	211	10	
G	211	100	
G	212	10	
G	212	100	
G	213	10	
G	213	100	
G	214	10	
G	214	100	
G	215	10	
G	215	100	
G	216	10	
G	216	100	
G	217	10	
G	217	100	
G	218	10	
G	218	100	
G	219	10	
G	219	100	
G	220	10	
G	220	100	
G	221	10	
G	221	100	
G	222	10	
G	222	100	
G	223	10	
G	223	100	
G	224	10	
G	224	100	
G	225	10	
G	225	100	
G	226	10	
G	226	100	
G	227	10	
G	227	100	
G	228	10	
G	228	100	
G	229	10	
G	229	100	
G	230	10	
G	230	100	
G	231	10	
G	231	100	
G	232	10	
G	232	100	
G	233	10	
G	233	100	
G	234	10	
G	234	100	
G	235	10	
G	235	100	
G	236	10	
G	236	100	
G	237	10	
G	237	100	
G	238	10	
G	238	100	
G	239	10	
G	239	100	
G	240	10	
G	240	100	
G	241	10	
G	241	100	
G	242	10	
G	242	100	
G	243	10	
G	243	100	
G	244	10	
G	244	100	
G	245	10	
G	245	100	
G	246	10	
G	246	100	
G	247	10	
G	247	100	
G	248	10	
G	248	100	
G	249	10	
G	249	100	
G	250	10	
G	250	100	
G	251	10	
G	251	100	
G	252	10	
G	252	100	
G	253	10	
G	253	100	
G	254	10	
G	254	100	
G	255	10	
G	255	100	
G	256	10	
G	256	100	
G	257	10	
G	257	100	
G	258	10	
G	258	100	
G	259	10	
G	259	100	
G	260	10	
G	260	100	
G	261	10	
G	261	100	
G	262	10	
G	262	100	
G	263	10	
G	263	100	
G	264	10	
G	264	100	
G	265	10	
G	265	100	
G	266	10	
G	266	100	
G	267	10	
G	267	100	
G	268	10	
G	268	100	
G	269	10	
G	269	100	
G	270	10	
G	270	100	
G	271	10	
G	271	100	
G	272	10	
G	272	100	
G	273	10	
G	273	100	
G	274	10	
G	274	100	
G	275	10	
G	275	100	
G	276	10	
G	276	100	
G	277	10	
G	277	100	
G	278	10	
G	278	100	
G	279	10	
G	279	100	
G	280	10	
G	280	100	
G	281	10	
G	281	100	
G	282	10	
G	282	100	
G	283	10	
G	283	100	
G	284	10	
G	284	100	
G	285	10	
G	285	100	
G	286	10	
G	286	100	
G	287	10	
G	287	100	
G	288	10	
G	288	100	
G	289	10	
G	289	100	
G	290	10	
G	290	100	
G	291	10	
G	291	100	
G	292	10	
G	292	100	
G	293	10	
G	293	100	
G	294	10	
G	294	100	
G	295	10	
G	295	100	
G	296	10	
G	296	100	
G	297	10	
G	297	100	
G	298	10	
G	298	100	
G	299	10	
G	299	100	
G	300	10	
G	300	100	
C	0	10	
C	0	100	
C	1	10	
C	1	100	
C	2	10	
C	2	100	
C	3	10	
C	3	100	
C	4	10	
C	4	100	
C	5	10	
C	5	100	
C	6	10	
C	6	100	
C	7	10	
C	7	100	
C	8	10	
C	8	100	
C	9	10	
C	9	100	
C	10	10	
C	10	100	
C	11	10	
C	11	100	
C	12	10	
C	12	100	
C	13	10	
C	13	100	
C	14	10	
C	14	100	
C	15	10	
C	15	100	
C	16	10	
C	16	100	
C	17	10	
C	17	100	
C	18	10	
C	18	100	
C	19	10	
C	19	100	
C	20	10	
C	20	100	
C	21	10	
C	21	100	
C	22	10	
C	22	100	
C	23	10	
C	23	100	
C	24	10	
C	24	100	
C	25	10	
C	25	100	
C	26	10	
C	26	100	
C	27	10	
C	27	100	
C	28	10	
C	28	100	
C	29	10	
C	29	100	
C	30	10	
C	30	100	
C	31	10	
C	31	100	
C	32	10	
C	32	100	
C	33	10	
C	33	100	
C	34	10	
C	34	100	
C	35	10	
C	35	100	
C	36	10	
C	36	100	
C	37	10	
C	37	100	
C	38	10	
C	38	100	
C	39	10	
C	39	100	
C	40	10	
C	40	100	
C	41	10	
C	41	100	
C	42	10	
C	42	100	
C	43	10	
C	43	100	
C	44	10	
C	44	100	
C	45	10	
C	45	100	
C	46	10	
C	46	100	
C	47	10	
C	47	100	
C	48	10	
C	48	100	
C	49	10	
C	49	100	
C	50	10	
C	50	100	
C	51	10	
C	51	100	
C	52	10	
C	52	100	
C	53	10	
C	53	100	
C	54	10	
C	54	100	
C	55	10	
C	55	100	
C	56	10	
C	56	100	
C	57	10	
C	57	100	
C	58	10	
C	58	100	
C	59	10	
C	59	100	
C	60	10	
C	60	100	
C	61	10	
C	61	100	
C	62	10	
C	62	100	
C	63	10	
C	63	100	
C	64	10	
C	64	100	
C	65	10	
C	65	100	
C	66	10	
C	66	100	
C	67	10	
C	67	100	
C	68	10	
C	68	100	
C	69	10	
C	69	100	
C	70	10	
C	70	100	
C	71	10	
C	71	100	
C	72	10	
C	72	100	
C	73	10	
C	73	100	
C	74	10	
C	74	100	
C	75	10	
C	75	100	
C	76	10	
C	76	100	
C	77	10	
C	77	100	
C	78	10	
C	78	100	
C	79	10	
C	79	100	
C	80	10	
C	80	100	
C	81	10	
C	81	100	
C	82	10	
C	82	100	
C	83	10	
C	83	100	
C	84	10	
C	84	100	
C	85	10	
C	85	100	
C	86	10	
C	86	100	
C	87	10	
C	87	100	
C	88	10	
C	88	100	
C	89	10	
C	89	100	
C	90	10	
C	90	100	
C	91	10	
C	91	100	
C	92	10	
C	92	100	
C	93	10	
C	93	100	
C	94	10	
C	94	100	
C	95	10	
C	95	100	
C	96	10	
C	96	100	
C	97	10	
C	97	100	
C	98	10	
C	98	100	
C	99	10	
C	99	100	
C	100	10	
C	100	100	
C	101	10	
C	101	100	
C	102	10	
C	102	100	
C	103	10	
C	103	100	
C	104	10	
C	104	100	
C	105	10	
C	105	100	
C	106	10	
C	106	100	
C	107	10	
C	107	100	
C	108	10	
C	108	100	
C	109	10	
C	109	100	
C	110	10	
C	110	100	
C	111	10	
C	111	100	
C	112	10	
C	112	100	
C	113	10	
C	113	100	
C	114	10	
C	114	100	
C	115	10	
C	115	100	
C	116	10	
C	116	100	
C	117	10	
C	117	100	
C	118	10	
C	118	100	
C	119	10	
C	119	100	
C	120	10	
C	120	100	
C	121	10	
C	121	100	
C	122	10	
C	122	100	
C	123	10	
C	123	100	
C	124	10	
C	124	100	
C	125	10	
C	125	100	
C	126	10	
C	126	100	
C	127	10	
C	127	100	
C	128	10	
C	128	100	
C	129	10	
C	129	100	
C	130	10	
C	130	100	
C	131	10	
C	131	100	
C	132	10	
C	132	100	
C	133	10	
C	133	100	
C	134	10	
C	134	100	
C	135	10	
C	135	100	
C	136	10	
C	136	100	
C	137	10	
C	137	100	
C	138	10	
C	138	100	
C	139	10	
C	139	100	
C	140	10	
C	140	100	
C	141	10	
C	141	100	
C	142	10	
C	142	100	
C	143	10	
C	143	100	
C	144	10	
C	144	100	
C	145	10	
C	145	100	
C	146	10	
C	146	100	
C	147	10	
C	147	100	
C	148	10	
C	148	100	
C	149	10	
C	149	100	
C	150	10	
C	150	100	
C	151	10	
C	151	100	
C	152	10	
C	152	100	
C	153	10	
C	153	100	
C	154	10	
C	154	100	
C	155	10	
C	155	100	
C	156	10	
C	156	100	
C	157	10	
C	157	100	
C	158	10	
C	158	100	
C	159	10	
C	159	100	
C	160	10	
C	160	100	
C	161	10	
C	161	100	
C	162	10	
C	162	100	
C	163	10	
C	163	100	
C	164	10	
C	164	100	
C	165	10	
C	165	100	
C	166	10	
C	166	100	
C	167	10	
C	167	100	
C	168	10	
C	168	100	
C	169	10	
C	169	100	
C	170	10	
C	170	100	
C	171	10	
C	171	100	
C	172	10	
C	172	100	
C	173	10	
C	173	100	
C	174	10	
C	174	100	
C	175	10	
C	175	100	
C	176	10	
C	176	100	
C	177	10	
C	177	100	
C	178	10	
C	178	100	
C	179	10	
C	179	100	
C	180	10	
C	180	100	
C	181	10	
C	181	100	
C	182	10	
C	182	100	
C	183	10	
C	183	100	
C	184	10	
C	184	100	
C	185	10	
C	185	100	
C	186	10	
C	186	100	
C	187	10	
C	187	100	
C	188	10	
C	188	100	
C	189	10	
C	189	100	
C	190	10	
C	190	100	
C	191	10	
C	191	100	
C	192	10	
C	192	100	
C	193	10	
C	193	100	
C	194	10	
C	194	100	
C	195	10	
C	195	100	
C	196	10	
C	196	100	
C	197	10	
C	197	100	
C	198	10	
C	198	100	
C	199	10	
C	199	100	
C	200	10	
C	200	100	
C	201	10	
C	201	100	
C	202	10	
C	202	100	
C	203	10	
C	203	100	
C	204	10	
C	204	100	
C	205	10	
C	205	100	
C	206	10	
C	206	100	
C	207	10	
C	207	100	
C	208	10	
C	208	100	
C	209	10	
C	209	100	
C	210	10	
C	210	100	
C	211	10	
C	211	100	
C	212	10	
C	212	100	
C	213	10	
C	213	100	
C	214	10	
C	214	100	
C	215	10	
C	215	100	
C	216	10	
C	216	100	
C	217	10	
C	217	100	
C	218	10	
C	218	100	
C	219	10	
C	219	100	
C	220	10	
C	220	100	
C	221	10	
C	221	100	
C	222	10	
C	222	100	
C	223	10	
C	223	100	
C	224	10	
C	224	100	
C	225	10	
C	225	100	
C	226	10	
C	226	100	
C	227	10	
C	227	100	
C	228	10	
C	228	100	
C	229	10	
C	229	100	
C	230	10	
C	230	100	
C	231	10	
C	231	100	
C	232	10	
C	232	100	
C	233	10	
C	233	100	
C	234	10	
C	234	100	
C	235	10	
C	235	100	
C	236	10	
C	236	100	
C	237	10	
C	237	100	
C	238	10	
C	238	100	
C	239	10	
C	239	100	
C	240	10	
C	240	100	
C	241	10	
C	241	100	
C	242	10	
C	242	100	
C	243	10	
C	243	100	
C	244	10	
C	244	100	
C	245	10	
C	245	100	
C	246	10	
C	246	100	
C	247	10	
C	247	100	
C	248	10	
C	248	100	
C	249	10	
C	249	100	
C	250	10	
C	250	100	
C	251	10	
C	251	100	
C	252	10	
C	252	100	
C	253	10	
C	253	100	
C	254	10	
C	254	100	
C	255	10	
C	255	100	
C	256	10	
C	256	100	
C	257	10	
C	257	100	
C	258	10	
C	258	100	
C	259	10	
C	259	100	
C	260	10	
C	260	100	
C	261	10	
C	261	100	
C	262	10	
C	262	100	
C	263	10	
C	263	100	
C	264	10	
C	264	100	
C	265	10	
C	265	100	
C	266	10	
C	266	100	
C	267	10	
C	267	100	
C	268	10	
C	268	100	
C	269	10	
C	269	100	
C	270	10	
C	270	100	
C	271	10	
C	271	100	
C	272	10	
C	272	100	
C	273	10	
C	273	100	
C	274	10	
C	274	100	
C	275	10	
C	275	100	
C	276	10	
C	276	100	
C	277	10	
C	277	100	
C	278	10	
C	278	100	
C	279	10	
C	279	100	
C	280	10	
C	280	100	
C	281	10	
C	281	100	
C	282	10	
C	282	100	
C	283	10	
C	283	100	
C	284	10	
C	284	100	
C	285	10	
C	285	100	
C	286	10	
C	286	100	
C	287	10	
C	287	100	
C	288	10	
C	288	100	
C	289	10	
C	289	100	
C	290	10	
C	290	100	
C	291	10	
C	291	100	
C	292	10	
C	292	100	
C	293	10	
C	293	100	
C	294	10	
C	294	100	
C	295	10	
C	295	100	
C	296	10	
C	296	100	
C	297	10	
C	297	100	
C	298	10	
C	298	100	
C	299	10	
C	299	100	
C	300	10	
C	300	100	
